project_1/project_1.sim/sim_1/behav/xsim/tb_top_dump.vcd
$date
   Fri Apr 26 15:42:23 2024
$end
$version
  2018.2
$end
$timescale
  1ps
$end
$scope module tb_top $end
$scope module DUT $end
$var wire 1 ! clk $end
$var wire 1 " rst $end
$var reg 8 # an [7:0] $end
$var reg 7 $ a_to_g [6:0] $end
$var reg 1 % is_gemm_addr_late $end
$var reg 1 & system_bus_en $end
$var reg 1 ' system_bus_rdwr $end
$var reg 32 ( system_bus_rd_data [31:0] $end
$var reg 32 ) system_bus_wr_data [31:0] $end
$var reg 32 * gemm_conf_read [31:0] $end
$var reg 32 + mem_read_data [31:0] $end
$var reg 32 , gemm_conf_read_ppl [31:0] $end
$var reg 32 - result [31:0] $end
$var reg 32 . system_bus_addr [31:0] $end
$var reg 5 / interface_control [4:0] $end
$var reg 1 0 interface_rdwr $end
$var reg 1 1 interface_en $end
$var reg 32 2 interface_addr [31:0] $end
$var reg 128 3 interface_rd_data [127:0] $end
$var reg 128 4 interface_wr_data [127:0] $end
$var reg 4 5 system_bus_mask [3:0] $end
$var reg 1 6 interupt $end
$var reg 1 7 mem_valid $end
$var reg 1 8 is_gemm_addr $end
$var reg 1 9 en_gemm_conf $end
$var reg 1 : en_Dmem $end
$upscope $end
$upscope $end
$enddefinitions $end
#0
$dumpvars
0!
1"
b11111111 #
b111000 $
x%
0&
0'
bx (
b0 )
b0 *
bx +
bx ,
bx -
bx .
bx /
00
01
bx 2
bx 3
bx 4
b0 5
x6
x7
x8
09
0:
$end
#1000
1!
b11111110 #
x%
0&
0'
bx (
b0 )
b0 *
b0 ,
b0 .
bx /
00
01
b0 2
b0 5
07
08
09
0:
#2000
0!
#3000
1!
0"
0%
bx (
b0 ,
07
#4000
0!
#5000
1!
0%
b0 ,
07
#6000
0!
#7000
1!
0%
b0 *
b0 ,
b10000000000 .
07
#8000
0!
#9000
1!
0%
b0 *
b0 ,
b0 .
07
#10000
0!
#11000
1!
0%
b0 ,
07
#12000
0!
#13000
1!
0%
0&
0'
b0 )
b0 *
b0 ,
b10000110 .
b0 5
07
#14000
0!
#15000
1!
0%
0&
0'
b0 )
b0 *
b0 ,
b10100 .
b0 5
07
#16000
0!
#17000
1!
0%
0&
0'
b0 )
b0 *
b0 ,
b0 .
b0 5
07
#18000
0!
#19000
1!
0%
0&
0'
b0 )
b0 *
b0 ,
b1000 .
bx /
00
01
b0 5
07
#20000
0!
#21000
1!
0%
b0 *
b0 ,
b11100 .
07
#22000
0!
#23000
1!
0%
0&
0'
b0 )
b0 *
b0 ,
b0 .
b0 5
07
#24000
0!
#25000
1!
0%
1&
0'
b0 )
b0 *
b0 ,
b1000 .
b1111 5
07
09
1:
#26000
0!
#27000
1!
0%
b1 (
b1 +
b0 ,
17
#28000
0!
#29000
1!
0%
0&
0'
b0 )
b0 *
b1 +
b0 ,
b0 .
b0 5
17
09
0:
#30000
0!
#31000
1!
0%
0&
0'
b0 )
b0 *
b0 ,
b1100 .
b0 5
07
#32000
0!
#33000
1!
0%
0&
0'
b0 )
b0 *
b0 ,
b0 .
b0 5
07
#34000
0!
#35000
1!
0%
1&
0'
b0 )
b0 *
b0 ,
b1100 .
b1111 5
07
09
1:
#36000
0!
#37000
1!
0%
b10 (
b10 +
b0 ,
17
#38000
0!
#39000
1!
0%
0&
0'
b0 )
b0 *
b10 +
b0 ,
b0 .
b0 5
17
09
0:
#40000
0!
#41000
1!
0%
0&
0'
b0 )
b0 *
b0 ,
b10000 .
b0 5
07
#42000
0!
#43000
1!
0%
0&
0'
b0 )
b0 *
b0 ,
b0 .
b0 5
07
#44000
0!
#45000
1!
0%
1&
0'
b0 )
b0 *
b0 ,
b10000 .
b1111 5
07
09
1:
#46000
0!
#47000
1!
0%
b11 (
b11 +
b0 ,
17
#48000
0!
#49000
1!
0%
0&
0'
b0 )
b0 *
b11 +
b0 ,
b0 .
b0 5
17
09
0:
#50000
0!
#51000
1!
0%
0&
0'
b0 )
b0 *
b0 ,
b10100 .
b0 5
07
#52000
0!
#53000
1!
0%
0&
0'
b0 )
b0 *
b0 ,
b0 .
b0 5
07
#54000
0!
#55000
1!
0%
1&
0'
b0 )
b0 *
b0 ,
b10100 .
b1111 5
07
09
1:
#56000
0!
#57000
1!
0%
b100 (
b100 +
b0 ,
17
#58000
0!
#59000
1!
0%
0&
0'
b0 )
b0 *
b100 +
b0 ,
b0 .
b0 5
17
09
0:
#60000
0!
#61000
1!
0%
0&
0'
b0 )
b0 *
b0 ,
b11000 .
b0 5
07
#62000
0!
#63000
1!
0%
0&
0'
b0 )
b0 *
b0 ,
b0 .
b0 5
07
#64000
0!
#65000
1!
0%
b0 *
b0 ,
b111000 .
07
#66000
0!
#67000
1!
0%
0&
0'
b0 )
b0 *
b0 ,
b11100 .
b0 5
07
#68000
0!
#69000
1!
0%
0&
0'
b0 )
b0 *
b0 ,
b0 .
b0 5
07
#70000
0!
#71000
1!
0%
1&
0'
b0 )
b0 *
b0 ,
b111000 .
b1111 5
07
09
1:
#72000
0!
#73000
1!
0%
bx (
bx +
b0 ,
17
#74000
0!
#75000
1!
0%
0&
0'
b0 )
b0 *
bx +
b0 ,
b0 .
b0 5
17
09
0:
#76000
0!
#77000
1!
0%
0&
0'
b0 )
b0 *
b0 ,
b111100 .
b0 5
07
#78000
0!
#79000
1!
0%
0&
0'
b0 )
b0 *
b0 ,
b0 .
b0 5
07
#80000
0!
#81000
1!
0%
1&
0'
b0 )
b0 *
b0 ,
b111100 .
b1111 5
07
09
1:
#82000
0!
#83000
1!
0%
bx +
b0 ,
17
#84000
0!
#85000
1!
0%
0&
0'
b0 )
b0 *
bx +
b0 ,
b0 .
b0 5
17
09
0:
#86000
0!
#87000
1!
0%
0&
0'
b0 )
b0 *
b0 ,
b1000000 .
b0 5
07
#88000
0!
#89000
1!
0%
0&
0'
b0 )
b0 *
b0 ,
b0 .
b0 5
07
#90000
0!
#91000
1!
0%
1&
0'
b0 )
b0 *
b0 ,
b1000000 .
b1111 5
07
09
1:
#92000
0!
#93000
1!
0%
bx +
b0 ,
17
#94000
0!
#95000
1!
0%
0&
0'
b0 )
b0 *
bx +
b0 ,
b0 .
b0 5
17
09
0:
#96000
0!
#97000
1!
0%
0&
0'
b0 )
b0 *
b0 ,
b1000100 .
b0 5
07
#98000
0!
#99000
1!
0%
0&
0'
b0 )
b0 *
b0 ,
b0 .
b0 5
07
#100000
0!
#101000
1!
0%
1&
0'
b0 )
b0 *
b0 ,
b1000100 .
b1111 5
07
09
1:
#102000
0!
#103000
1!
0%
bx +
b0 ,
17
#104000
0!
#105000
1!
0%
0&
0'
b0 )
b0 *
bx +
b0 ,
b0 .
b0 5
17
09
0:
#106000
0!
#107000
1!
0%
0&
0'
b0 )
b0 *
b0 ,
b1001000 .
b0 5
07
#108000
0!
#109000
1!
0%
0&
0'
b0 )
b0 *
b0 ,
b0 .
b0 5
07
#110000
0!
#111000
1!
0%
b0 *
b0 ,
b1101000 .
07
#112000
0!
#113000
1!
0%
0&
0'
b0 )
b0 *
b0 ,
b11100 .
b0 5
07
#114000
0!
#115000
1!
0%
0&
0'
b0 )
b0 *
b0 ,
b0 .
b0 5
07
#116000
0!
#117000
1!
0%
1&
0'
b0 )
b0 *
b0 ,
b1101000 .
b1111 5
07
09
1:
#118000
0!
#119000
1!
0%
b1011 (
b1011 +
b0 ,
17
#120000
0!
#121000
1!
0%
0&
0'
b0 )
b0 *
b1011 +
b0 ,
b0 .
b0 5
17
09
0:
#122000
0!
#123000
1!
0%
0&
0'
b0 )
b0 *
b0 ,
b1101100 .
b0 5
07
#124000
0!
#125000
1!
0%
0&
0'
b0 )
b0 *
b0 ,
b0 .
b0 5
07
#126000
0!
#127000
1!
0%
1&
0'
b0 )
b0 *
b0 ,
b1101100 .
b1111 5
07
09
1:
#128000
0!
#129000
1!
0%
b1100 (
b1100 +
b0 ,
17
#130000
0!
#131000
1!
0%
0&
0'
b0 )
b0 *
b1100 +
b0 ,
b0 .
b0 5
17
09
0:
#132000
0!
#133000
1!
0%
0&
0'
b0 )
b0 *
b0 ,
b1110000 .
b0 5
07
#134000
0!
#135000
1!
0%
0&
0'
b0 )
b0 *
b0 ,
b0 .
b0 5
07
#136000
0!
#137000
1!
0%
1&
0'
b0 )
b0 *
b0 ,
b1110000 .
b1111 5
07
09
1:
#138000
0!
#139000
1!
0%
b0 (
b0 +
b0 ,
17
#140000
0!
#141000
1!
0%
0&
0'
b0 )
b0 *
b0 +
b0 ,
b0 .
b0 5
17
09
0:
#142000
0!
#143000
1!
0%
0&
0'
b0 )
b0 *
b0 ,
b1110100 .
b0 5
07
#144000
0!
#145000
1!
0%
0&
0'
b0 )
b0 *
b0 ,
b0 .
b0 5
07
#146000
0!
#147000
1!
0%
1&
0'
b0 )
b0 *
b0 ,
b1110100 .
b1111 5
07
09
1:
#148000
0!
#149000
1!
0%
b0 +
b0 ,
17
#150000
0!
#151000
1!
0%
0&
0'
b0 )
b0 *
b0 +
b0 ,
b0 .
b0 5
17
09
0:
#152000
0!
#153000
1!
0%
0&
0'
b0 )
b0 *
b0 ,
b1111000 .
b0 5
07
#154000
0!
#155000
1!
0%
0&
0'
b0 )
b0 *
b0 ,
b0 .
b0 5
07
#156000
0!
#157000
1!
0%
b0 *
b0 ,
b10011000 .
07
#158000
0!
#159000
1!
0%
0&
0'
b0 )
b0 *
b0 ,
b11100 .
b0 5
07
#160000
0!
#161000
1!
0%
0&
0'
b0 )
b0 *
b0 ,
b0 .
b0 5
07
#162000
0!
#163000
1!
0%
1&
0'
b0 )
b0 *
b0 ,
b10011000 .
b1111 5
07
09
1:
#164000
0!
#165000
1!
0%
bx (
bx +
b0 ,
17
#166000
0!
#167000
1!
0%
0&
0'
b0 )
b0 *
bx +
b0 ,
b0 .
b0 5
17
09
0:
#168000
0!
#169000
1!
0%
0&
0'
b0 )
b0 *
b0 ,
b10011100 .
b0 5
07
#170000
0!
#171000
1!
0%
0&
0'
b0 )
b0 *
b0 ,
b0 .
b0 5
07
#172000
0!
#173000
1!
0%
1&
0'
b0 )
b0 *
b0 ,
b10011100 .
b1111 5
07
09
1:
#174000
0!
#175000
1!
0%
bx +
b0 ,
17
#176000
0!
#177000
1!
0%
0&
0'
b0 )
b0 *
bx +
b0 ,
b0 .
b0 5
17
09
0:
#178000
0!
#179000
1!
0%
0&
0'
b0 )
b0 *
b0 ,
b10100000 .
b0 5
07
#180000
0!
#181000
1!
0%
0&
0'
b0 )
b0 *
b0 ,
b0 .
b0 5
07
#182000
0!
#183000
1!
0%
1&
0'
b0 )
b0 *
b0 ,
b10100000 .
b1111 5
07
09
1:
#184000
0!
#185000
1!
0%
bx +
b0 ,
17
#186000
0!
#187000
1!
0%
0&
0'
b0 )
b0 *
bx +
b0 ,
b0 .
b0 5
17
09
0:
#188000
0!
#189000
1!
0%
0&
0'
b0 )
b0 *
b0 ,
b10100100 .
b0 5
07
#190000
0!
#191000
1!
0%
0&
0'
b0 )
b0 *
b0 ,
b0 .
b0 5
07
#192000
0!
#193000
1!
0%
1&
0'
b0 )
b0 *
b0 ,
b10100100 .
b1111 5
07
09
1:
#194000
0!
#195000
1!
0%
bx +
b0 ,
17
#196000
0!
#197000
1!
0%
0&
0'
b0 )
b0 *
bx +
b0 ,
b0 .
b0 5
17
09
0:
#198000
0!
#199000
1!
0%
0&
0'
b0 )
b0 *
b0 ,
b10101000 .
b0 5
07
#200000
0!
#201000
1!
0%
0&
0'
b0 )
b0 *
b0 ,
b0 .
b0 5
07
#202000
0!
#203000
1!
0%
b0 *
b0 ,
b11001000 .
07
#204000
0!
#205000
1!
0%
0&
0'
b0 )
b0 *
b0 ,
b11100 .
b0 5
07
#206000
0!
#207000
1!
0%
0&
0'
b0 )
b0 *
b0 ,
b0 .
b0 5
07
#208000
0!
#209000
1!
0%
1&
0'
b0 )
b0 *
b0 ,
b11001000 .
b1111 5
07
09
1:
#210000
0!
#211000
1!
0%
bx +
b0 ,
17
#212000
0!
#213000
1!
0%
0&
0'
b0 )
b0 *
bx +
b0 ,
b0 .
b0 5
17
09
0:
#214000
0!
#215000
1!
0%
0&
0'
b0 )
b0 *
b0 ,
b11001100 .
b0 5
07
#216000
0!
#217000
1!
0%
0&
0'
b0 )
b0 *
b0 ,
b0 .
b0 5
07
#218000
0!
#219000
1!
0%
1&
0'
b0 )
b0 *
b0 ,
b11001100 .
b1111 5
07
09
1:
#220000
0!
#221000
1!
0%
bx +
b0 ,
17
#222000
0!
#223000
1!
0%
0&
0'
b0 )
b0 *
bx +
b0 ,
b0 .
b0 5
17
09
0:
#224000
0!
#225000
1!
0%
0&
0'
b0 )
b0 *
b0 ,
b11010000 .
b0 5
07
#226000
0!
#227000
1!
0%
0&
0'
b0 )
b0 *
b0 ,
b0 .
b0 5
07
#228000
0!
#229000
1!
0%
1&
0'
b0 )
b0 *
b0 ,
b11010000 .
b1111 5
07
09
1:
#230000
0!
#231000
1!
0%
bx +
b0 ,
17
#232000
0!
#233000
1!
0%
0&
0'
b0 )
b0 *
bx +
b0 ,
b0 .
b0 5
17
09
0:
#234000
0!
#235000
1!
0%
0&
0'
b0 )
b0 *
b0 ,
b11010100 .
b0 5
07
#236000
0!
#237000
1!
0%
0&
0'
b0 )
b0 *
b0 ,
b0 .
b0 5
07
#238000
0!
#239000
1!
0%
1&
0'
b0 )
b0 *
b0 ,
b11010100 .
b1111 5
07
09
1:
#240000
0!
#241000
1!
0%
bx +
b0 ,
17
#242000
0!
#243000
1!
0%
0&
0'
b0 )
b0 *
bx +
b0 ,
b0 .
b0 5
17
09
0:
#244000
0!
#245000
1!
0%
0&
0'
b0 )
b0 *
b0 ,
b11011000 .
b0 5
07
#246000
0!
#247000
1!
0%
0&
0'
b0 )
b0 *
b0 ,
b0 .
b0 5
07
#248000
0!
#249000
1!
0%
b0 *
b0 ,
b11111000 .
07
#250000
0!
#251000
1!
0%
0&
0'
b0 )
b0 *
b0 ,
b11100 .
b0 5
07
#252000
0!
#253000
1!
0%
0&
0'
b0 )
b0 *
b0 ,
b0 .
b0 5
07
#254000
0!
#255000
1!
0%
1&
0'
b0 )
b0 *
b0 ,
b11111000 .
b1111 5
07
09
1:
#256000
0!
#257000
1!
0%
bx +
b0 ,
17
#258000
0!
#259000
1!
0%
0&
0'
b0 )
b0 *
bx +
b0 ,
b0 .
b0 5
17
09
0:
#260000
0!
#261000
1!
0%
0&
0'
b0 )
b0 *
b0 ,
b11111100 .
b0 5
07
#262000
0!
#263000
1!
0%
0&
0'
b0 )
b0 *
b0 ,
b0 .
b0 5
07
#264000
0!
#265000
1!
0%
1&
0'
b0 )
b0 *
b0 ,
b11111100 .
b1111 5
07
09
1:
#266000
0!
#267000
1!
0%
bx +
b0 ,
17
#268000
0!
#269000
1!
0%
0&
0'
b0 )
b0 *
bx +
b0 ,
b0 .
b0 5
17
09
0:
#270000
0!
#271000
1!
0%
0&
0'
b0 )
b0 *
b0 ,
b100000000 .
b0 5
07
#272000
0!
#273000
1!
0%
0&
0'
b0 )
b0 *
b0 ,
b0 .
b0 5
07
#274000
0!
#275000
1!
0%
1&
0'
b0 )
b0 *
b0 ,
b100000000 .
b1111 5
07
09
1:
#276000
0!
#277000
1!
0%
bx +
b0 ,
17
#278000
0!
#279000
1!
0%
0&
0'
b0 )
b0 *
bx +
b0 ,
b0 .
b0 5
17
09
0:
#280000
0!
#281000
1!
0%
0&
0'
b0 )
b0 *
b0 ,
b100000100 .
b0 5
07
#282000
0!
#283000
1!
0%
0&
0'
b0 )
b0 *
b0 ,
b0 .
b0 5
07
#284000
0!
#285000
1!
0%
1&
0'
b0 )
b0 *
b0 ,
b100000100 .
b1111 5
07
09
1:
#286000
0!
#287000
1!
0%
bx +
b0 ,
17
#288000
0!
#289000
1!
0%
0&
0'
b0 )
b0 *
bx +
b0 ,
b0 .
b0 5
17
09
0:
#290000
0!
#291000
1!
0%
0&
0'
b0 )
b0 *
b0 ,
b100001000 .
b0 5
07
#292000
0!
#293000
1!
0%
0&
0'
b0 )
b0 *
b0 ,
b0 .
b0 5
07
#294000
0!
#295000
1!
0%
b0 *
b0 ,
b100101000 .
07
#296000
0!
#297000
1!
0%
0&
0'
b0 )
b0 *
b0 ,
b11100 .
b0 5
07
#298000
0!
#299000
1!
0%
0&
0'
b0 )
b0 *
b0 ,
b0 .
b0 5
07
#300000
0!
#301000
1!
0%
1&
0'
b0 )
b0 *
b0 ,
b100101000 .
b1111 5
07
09
1:
#302000
0!
#303000
1!
0%
bx +
b0 ,
17
#304000
0!
#305000
1!
0%
0&
0'
b0 )
b0 *
bx +
b0 ,
b0 .
b0 5
17
09
0:
#306000
0!
#307000
1!
0%
0&
0'
b0 )
b0 *
b0 ,
b100101100 .
b0 5
07
#308000
0!
#309000
1!
0%
0&
0'
b0 )
b0 *
b0 ,
b0 .
b0 5
07
#310000
0!
#311000
1!
0%
1&
0'
b0 )
b0 *
b0 ,
b100101100 .
b1111 5
07
09
1:
#312000
0!
#313000
1!
0%
bx +
b0 ,
17
#314000
0!
#315000
1!
0%
0&
0'
b0 )
b0 *
bx +
b0 ,
b0 .
b0 5
17
09
0:
#316000
0!
#317000
1!
0%
0&
0'
b0 )
b0 *
b0 ,
b100110000 .
b0 5
07
#318000
0!
#319000
1!
0%
0&
0'
b0 )
b0 *
b0 ,
b0 .
b0 5
07
#320000
0!
#321000
1!
0%
1&
0'
b0 )
b0 *
b0 ,
b100110000 .
b1111 5
07
09
1:
#322000
0!
#323000
1!
0%
bx +
b0 ,
17
#324000
0!
#325000
1!
0%
0&
0'
b0 )
b0 *
bx +
b0 ,
b0 .
b0 5
17
09
0:
#326000
0!
#327000
1!
0%
0&
0'
b0 )
b0 *
b0 ,
b100110100 .
b0 5
07
#328000
0!
#329000
1!
0%
0&
0'
b0 )
b0 *
b0 ,
b0 .
b0 5
07
#330000
0!
#331000
1!
0%
1&
0'
b0 )
b0 *
b0 ,
b100110100 .
b1111 5
07
09
1:
#332000
0!
#333000
1!
0%
bx +
b0 ,
17
#334000
0!
#335000
1!
0%
0&
0'
b0 )
b0 *
bx +
b0 ,
b0 .
b0 5
17
09
0:
#336000
0!
#337000
1!
0%
0&
0'
b0 )
b0 *
b0 ,
b100111000 .
b0 5
07
#338000
0!
#339000
1!
0%
0&
0'
b0 )
b0 *
b0 ,
b0 .
b0 5
07
#340000
0!
#341000
1!
0%
b0 *
b0 ,
b101011000 .
07
#342000
0!
#343000
1!
0%
0&
0'
b0 )
b0 *
b0 ,
b11100 .
b0 5
07
#344000
0!
#345000
1!
0%
0&
0'
b0 )
b0 *
b0 ,
b0 .
b0 5
07
#346000
0!
#347000
1!
0%
1&
0'
b0 )
b0 *
b0 ,
b101011000 .
b1111 5
07
09
1:
#348000
0!
#349000
1!
0%
bx +
b0 ,
17
#350000
0!
#351000
1!
0%
0&
0'
b0 )
b0 *
bx +
b0 ,
b0 .
b0 5
17
09
0:
#352000
0!
#353000
1!
0%
0&
0'
b0 )
b0 *
b0 ,
b101011100 .
b0 5
07
#354000
0!
#355000
1!
0%
0&
0'
b0 )
b0 *
b0 ,
b0 .
b0 5
07
#356000
0!
#357000
1!
0%
1&
0'
b0 )
b0 *
b0 ,
b101011100 .
b1111 5
07
09
1:
#358000
0!
#359000
1!
0%
bx +
b0 ,
17
#360000
0!
#361000
1!
0%
0&
0'
b0 )
b0 *
bx +
b0 ,
b0 .
b0 5
17
09
0:
#362000
0!
#363000
1!
0%
0&
0'
b0 )
b0 *
b0 ,
b101100000 .
b0 5
07
#364000
0!
#365000
1!
0%
0&
0'
b0 )
b0 *
b0 ,
b0 .
b0 5
07
#366000
0!
#367000
1!
0%
1&
0'
b0 )
b0 *
b0 ,
b101100000 .
b1111 5
07
09
1:
#368000
0!
#369000
1!
0%
bx +
b0 ,
17
#370000
0!
#371000
1!
0%
0&
0'
b0 )
b0 *
bx +
b0 ,
b0 .
b0 5
17
09
0:
#372000
0!
#373000
1!
0%
0&
0'
b0 )
b0 *
b0 ,
b101100100 .
b0 5
07
#374000
0!
#375000
1!
0%
0&
0'
b0 )
b0 *
b0 ,
b0 .
b0 5
07
#376000
0!
#377000
1!
0%
1&
0'
b0 )
b0 *
b0 ,
b101100100 .
b1111 5
07
09
1:
#378000
0!
#379000
1!
0%
bx +
b0 ,
17
#380000
0!
#381000
1!
0%
0&
0'
b0 )
b0 *
bx +
b0 ,
b0 .
b0 5
17
09
0:
#382000
0!
#383000
1!
0%
0&
0'
b0 )
b0 *
b0 ,
b101101000 .
b0 5
07
#384000
0!
#385000
1!
0%
0&
0'
b0 )
b0 *
b0 ,
b0 .
b0 5
07
#386000
0!
#387000
1!
0%
b0 *
b0 ,
b110001000 .
07
#388000
0!
#389000
1!
0%
0&
0'
b0 )
b0 *
b0 ,
b11100 .
b0 5
07
#390000
0!
#391000
1!
0%
0&
0'
b0 )
b0 *
b0 ,
b0 .
b0 5
07
#392000
0!
#393000
1!
0%
1&
0'
b0 )
b0 *
b0 ,
b110001000 .
b1111 5
07
09
1:
#394000
0!
#395000
1!
0%
bx +
b0 ,
17
#396000
0!
#397000
1!
0%
0&
0'
b0 )
b0 *
bx +
b0 ,
b0 .
b0 5
17
09
0:
#398000
0!
#399000
1!
0%
0&
0'
b0 )
b0 *
b0 ,
b110001100 .
b0 5
07
#400000
0!
#401000
1!
0%
0&
0'
b0 )
b0 *
b0 ,
b0 .
b0 5
07
#402000
0!
#403000
1!
0%
1&
0'
b0 )
b0 *
b0 ,
b110001100 .
b1111 5
07
09
1:
#404000
0!
#405000
1!
0%
bx +
b0 ,
17
